# compile verilog/system verilog design source files
verilog xil_defaultlib  --include "../../../../jpeg.srcs/sources_1/bd/design_2/ipshared/ec67/hdl" --include "../../../../jpeg.srcs/sources_1/bd/design_2/ipshared/8c62/hdl" --include "/tools/Xilinx/Vivado/2019.1/data/xilinx_vip/include" \
"../../../../../ip_repo/pixelReOrder_1.0/hdl/rams_sp_rf_rst.v" \

sv xil_defaultlib  --include "../../../../jpeg.srcs/sources_1/bd/design_2/ipshared/ec67/hdl" --include "../../../../jpeg.srcs/sources_1/bd/design_2/ipshared/8c62/hdl" --include "/tools/Xilinx/Vivado/2019.1/data/xilinx_vip/include" \
"../../../../../ip_repo/pixelReOrder_1.0/src/pixelReOrder_v1_0.sv" \

# compile glbl module
verilog xil_defaultlib "glbl.v"

# Do not sort compile order
nosort
