# compile verilog/system verilog design source files
verilog xil_defaultlib  --include "../../../../jpeg.srcs/sources_1/bd/test_bd/ipshared/8713/hdl" --include "../../../../jpeg.srcs/sources_1/bd/design_2/ipshared/ec67/hdl" --include "../../../../jpeg.srcs/sources_1/bd/design_2/ipshared/8c62/hdl" --include "/tools/Xilinx/Vivado/2019.1/data/xilinx_vip/include" \
"../../../../jpeg.ip_user_files/bd/test_bd/ipshared/4180/sources/aq_axis_djpeg.v" \
"../../../../jpeg.ip_user_files/bd/test_bd/ipshared/4180/sources/aq_axis_djpeg_ctrl.v" \
"../../../../jpeg.ip_user_files/bd/test_bd/ipshared/4180/sources/aq_djpeg.v" \
"../../../../jpeg.ip_user_files/bd/test_bd/ipshared/4180/sources/aq_djpeg_dht.v" \
"../../../../jpeg.ip_user_files/bd/test_bd/ipshared/4180/sources/aq_djpeg_dqt.v" \
"../../../../jpeg.ip_user_files/bd/test_bd/ipshared/4180/sources/aq_djpeg_fsm.v" \
"../../../../jpeg.ip_user_files/bd/test_bd/ipshared/4180/sources/aq_djpeg_hm_decode.v" \
"../../../../jpeg.ip_user_files/bd/test_bd/ipshared/4180/sources/aq_djpeg_huffman.v" \
"../../../../jpeg.ip_user_files/bd/test_bd/ipshared/4180/sources/aq_djpeg_idct.v" \
"../../../../jpeg.ip_user_files/bd/test_bd/ipshared/4180/sources/aq_djpeg_idct_calc.v" \
"../../../../jpeg.ip_user_files/bd/test_bd/ipshared/4180/sources/aq_djpeg_idctb.v" \
"../../../../jpeg.ip_user_files/bd/test_bd/ipshared/4180/sources/aq_djpeg_regdata.v" \
"../../../../jpeg.ip_user_files/bd/test_bd/ipshared/4180/sources/aq_djpeg_ycbcr.v" \
"../../../../jpeg.ip_user_files/bd/test_bd/ipshared/4180/sources/aq_djpeg_ycbcr2rgb.v" \
"../../../../jpeg.ip_user_files/bd/test_bd/ipshared/4180/sources/aq_djpeg_ycbcr_mem.v" \
"../../../../jpeg.ip_user_files/bd/test_bd/ipshared/4180/sources/aq_djpeg_ziguzagu.v" \
"../../../../jpeg.ip_user_files/bd/test_bd/ip/test_bd_aq_axis_djpeg_0_0/sim/test_bd_aq_axis_djpeg_0_0.v" \
"../../../../jpeg.ip_user_files/bd/test_bd/ipshared/68d5/hdl/rams_sp_rf_rst.v" \

sv xil_defaultlib  --include "../../../../jpeg.srcs/sources_1/bd/test_bd/ipshared/8713/hdl" --include "../../../../jpeg.srcs/sources_1/bd/design_2/ipshared/ec67/hdl" --include "../../../../jpeg.srcs/sources_1/bd/design_2/ipshared/8c62/hdl" --include "/tools/Xilinx/Vivado/2019.1/data/xilinx_vip/include" \
"../../../../jpeg.ip_user_files/bd/test_bd/ipshared/68d5/src/pixelReOrder_v1_0.sv" \
"../../../../jpeg.ip_user_files/bd/test_bd/ip/test_bd_pixelReOrder_0_0/sim/test_bd_pixelReOrder_0_0.sv" \

verilog xil_defaultlib  --include "../../../../jpeg.srcs/sources_1/bd/test_bd/ipshared/8713/hdl" --include "../../../../jpeg.srcs/sources_1/bd/design_2/ipshared/ec67/hdl" --include "../../../../jpeg.srcs/sources_1/bd/design_2/ipshared/8c62/hdl" --include "/tools/Xilinx/Vivado/2019.1/data/xilinx_vip/include" \
"../../../../jpeg.ip_user_files/bd/test_bd/ip/test_bd_axis_data_fifo_0_0/sim/test_bd_axis_data_fifo_0_0.v" \
"../../../../jpeg.ip_user_files/bd/test_bd/sim/test_bd.v" \
"../../../../jpeg.srcs/sources_1/task_axilm.v" \
"../../../../jpeg.srcs/sources_1/bd/test_bd/hdl/test_bd_wrapper.v" \

sv xil_defaultlib  --include "../../../../jpeg.srcs/sources_1/bd/test_bd/ipshared/8713/hdl" --include "../../../../jpeg.srcs/sources_1/bd/design_2/ipshared/ec67/hdl" --include "../../../../jpeg.srcs/sources_1/bd/design_2/ipshared/8c62/hdl" --include "/tools/Xilinx/Vivado/2019.1/data/xilinx_vip/include" \
"../../../../jpeg.srcs/sim_1/new/tb_PixelReOrder_bd.sv" \

# compile glbl module
verilog xil_defaultlib "glbl.v"

# Do not sort compile order
nosort
